<svg 
 xmlns="http://www.w3.org/2000/svg"
 xmlns:xlink="http://www.w3.org/1999/xlink"
 class="icon" viewBox="0 0 27 27">
<path 
 d="M22.000,27.000 L0.489,27.000 L27.000,0.489 L27.000,22.000 C27.000,24.761 24.761,27.000 22.000,27.000 ZM22.831,13.000 C19.356,14.826 17.153,20.304 17.153,20.304 L15.797,17.609 L13.000,19.348 C14.186,19.783 15.881,21.174 17.322,23.000 C18.339,21.087 21.475,17.174 23.000,16.826 C22.407,15.435 22.746,14.304 22.831,13.000 Z"/>
</svg>
