{
  "id": "3421372",
  "name": "江门大数据",
  "font_family": "iconfont",
  "css_prefix_text": "icon-",
  "description": "",
  "glyphs": [
    {
      "icon_id": "30066158",
      "name": "新消息红点",
      "font_class": "hit",
      "unicode": "e67a",
      "unicode_decimal": 59002
    },
    {
      "icon_id": "29779737",
      "name": "账号设置",
      "font_class": "zhanghaoshezhi",
      "unicode": "e665",
      "unicode_decimal": 58981
    },
    {
      "icon_id": "29779835",
      "name": "用户管理",
      "font_class": "yonghuguanli",
      "unicode": "e666",
      "unicode_decimal": 58982
    },
    {
      "icon_id": "29779890",
      "name": "角色权限",
      "font_class": "jiaosequanxian",
      "unicode": "e667",
      "unicode_decimal": 58983
    },
    {
      "icon_id": "29779941",
      "name": "改密码",
      "font_class": "gaimima",
      "unicode": "e668",
      "unicode_decimal": 58984
    },
    {
      "icon_id": "29780491",
      "name": "首页",
      "font_class": "shouye",
      "unicode": "e669",
      "unicode_decimal": 58985
    },
    {
      "icon_id": "29780527",
      "name": "模板管理",
      "font_class": "mobanguanli",
      "unicode": "e66a",
      "unicode_decimal": 58986
    },
    {
      "icon_id": "29781971",
      "name": "测算价评审",
      "font_class": "cesuanjiapingshen",
      "unicode": "e66b",
      "unicode_decimal": 58987
    },
    {
      "icon_id": "29781973",
      "name": "发布管理",
      "font_class": "fabuguanli",
      "unicode": "e66c",
      "unicode_decimal": 58988
    },
    {
      "icon_id": "29781974",
      "name": "数据采集提取",
      "font_class": "shujucaijitiqu",
      "unicode": "e66d",
      "unicode_decimal": 58989
    },
    {
      "icon_id": "29781975",
      "name": "信息价",
      "font_class": "xinxijia",
      "unicode": "e66e",
      "unicode_decimal": 58990
    },
    {
      "icon_id": "29782432",
      "name": "评价",
      "font_class": "pingjia",
      "unicode": "e66f",
      "unicode_decimal": 58991
    },
    {
      "icon_id": "29782577",
      "name": "材价库",
      "font_class": "caijiaku",
      "unicode": "e670",
      "unicode_decimal": 58992
    },
    {
      "icon_id": "29782578",
      "name": "品牌库",
      "font_class": "pinpaiku",
      "unicode": "e671",
      "unicode_decimal": 58993
    },
    {
      "icon_id": "29782746",
      "name": "采集员管理",
      "font_class": "caijiyuanguanli",
      "unicode": "e672",
      "unicode_decimal": 58994
    },
    {
      "icon_id": "29782747",
      "name": "参数设置",
      "font_class": "canshushezhi",
      "unicode": "e673",
      "unicode_decimal": 58995
    },
    {
      "icon_id": "29782987",
      "name": "指标管理",
      "font_class": "zhibiaoguanli",
      "unicode": "e674",
      "unicode_decimal": 58996
    },
    {
      "icon_id": "29782988",
      "name": "指标应用",
      "font_class": "zhibiaoyingyong",
      "unicode": "e675",
      "unicode_decimal": 58997
    },
    {
      "icon_id": "29782989",
      "name": "项目管理",
      "font_class": "xiangmuguanli",
      "unicode": "e676",
      "unicode_decimal": 58998
    },
    {
      "icon_id": "29782990",
      "name": "文档管理",
      "font_class": "wendangguanli",
      "unicode": "e677",
      "unicode_decimal": 58999
    },
    {
      "icon_id": "29783017",
      "name": "材价管理",
      "font_class": "caijiaguanli",
      "unicode": "e678",
      "unicode_decimal": 59000
    },
    {
      "icon_id": "29783288",
      "name": "询价管理",
      "font_class": "xunjiaguanli",
      "unicode": "e679",
      "unicode_decimal": 59001
    }
  ]
}
